
	  Windows Installer SDK package information (GUID list)

-----------------------------------------
     1.0 SDK GUIDs
-----------------------------------------

 msival2.msi
	PackageCode  {0CD9A0A0-DDFD-11D1-A851-006097ABDE17}
	ProductCode  {0CD9A0A0-DDFD-11D1-A851-006097ABDE17}
	UpgradeCode  {AD2A58F2-E645-11D2-88C7-00A0C981B015}

 orca.msi
	PackageCode  {80F7E030-A751-11D2-A7D4-006097C99860}
	ProductCode  {80F7E030-A751-11D2-A7D4-006097C99860}
	UpgradeCode  {1AA03E10-2B19-11D2-B2EA-006097C99860}

 msispy.msi
	PackageCode  {000C1101-0000-0000-C000-000000000047}
	ProductCode  {9BBF15D0-1985-11D1-9A9D-006097C4E489}
	UpgradeCode  0

intelsdk.msi
	PackageCode  {BE7EB700-E9F1-11D2-9810-0040053547CB}
	ProductCode  {BE7EB700-E9F1-11D2-9810-0040053547CB}
	UpgradeCode  0


-----------------------------------------
     1.0 SDK Refresh GUIDs
-----------------------------------------
 
 no changes made

-----------------------------------------
     1.1 SDK GUIDs
-----------------------------------------

 note: all SDK packages will now use the following range
			
	 {8FC7****-88A0-4b41-82B8-8905D4AA904C}

 msival2.msi
	PackageCode  {8FC70000-88A0-4B41-82B8-8905D4AA904C}
	ProductCode  {8FC70000-88A0-4B41-82B8-8905D4AA904C}
	UpgradeCode  {AD2A58F2-E645-11D2-88C7-00A0C981B015}

 orca.msi
	PackageCode  {8FC71000-88A0-4B41-82B8-8905D4AA904C}
	ProductCode  {8FC71000-88A0-4B41-82B8-8905D4AA904C}
	UpgradeCode  {1AA03E10-2B19-11D2-B2EA-006097C99860}

 msispy.msi
	PackageCode  {8FC72000-88A0-4B41-82B8-8905D4AA904C}
	ProductCode  {8FC72000-88A0-4B41-82B8-8905D4AA904C}
	UpgradeCode  0

 intelsdk.msi
	PackageCode  {8FC73000-88A0-4B41-82B8-8905D4AA904C}
	ProductCode  {8FC73000-88A0-4B41-82B8-8905D4AA904C}
	UpgradeCode  0


-----------------------------------------
     1.2 SDK GUIDs
-----------------------------------------

 intelsdk.msi
	PackageCode    {8FC73001-88A0-4B41-82B8-8905D4AA904C}
	ProductCode    {8FC73001-88A0-4B41-82B8-8905D4AA904C}
	UpgradeCode    0
	ProductVersion 1.2

 msival2.msi
	PackageCode    {8FC70001-88A0-4B41-82B8-8905D4AA904C}
	ProductCode    {8FC70001-88A0-4B41-82B8-8905D4AA904C}
	UpgradeCode    {AD2A58F2-E645-11D2-88C7-00A0C981B015}
	ProductVersion 1.2

-----------------------------------------
     1.5 Beta 1 SDK GUIDs
-----------------------------------------

 intelsdk.msi
	PackageCode    {8FC73002-88A0-4B41-82B8-8905D4AA904C}
	ProductCode    {8FC73002-88A0-4B41-82B8-8905D4AA904C}
	UpgradeCode    0
	ProductVersion 1.5

 msival2.msi (x86)
	PackageCode  {B399DEDC-D348-42D0-9F1A-2A91BF1ABA76}
	ProductCode  {E1EA0AF4-6522-459C-9C0F-A1362E1286F9}
	UpgradeCode  {AD2A58F2-E645-11D2-88C7-00A0C981B015}

 orca.msi (x86)
	PackageCode  {FC556C9A-4292-4469-9150-7EF90B81FE61}
	ProductCode  {6F7CB29C-1319-4816-B345-0856916EB801}
	UpgradeCode  {1AA03E10-2B19-11D2-B2EA-006097C99860}

 msispy.msi -- NO LONGER AVAILABLE IN SDK RELEASES

 msival2.msi (ia64)
	PackageCode  {9F8F8E58-7A2B-4FD5-8057-7EEE069D9CA1}
	ProductCode  {546F90BE-A8F0-4FA4-853A-F6871CFEE41A}
	UpgradeCode  {105A6FFA-62E0-48B7-A02D-22E707DA24E3}

 orca.msi (ia64)
	PackageCode  {AE72B279-C841-457D-A819-1125683BBA81}
	ProductCode  {E46A76C0-F46C-463E-983D-E4FC123383BF}
	UpgradeCode  {606D211B-0E7E-4E98-9BF6-1A6BB10F5050}

-----------------------------------------
     1.5 Beta 2 SDK GUIDs
-----------------------------------------

 intelsdk.msi
	PackageCode    {8FC73003-88A0-4B41-82B8-8905D4AA904C}
	ProductCode    {8FC73003-88A0-4B41-82B8-8905D4AA904C}
	UpgradeCode    0

 msival2.msi (x86)
	PackageCode  {B399DEDD-D348-42D0-9F1A-2A91BF1ABA76}
	ProductCode  {E1EA0AF5-6522-459C-9C0F-A1362E1286F9}
	UpgradeCode  {AD2A58F2-E645-11D2-88C7-00A0C981B015}

 orca.msi (x86)
	PackageCode  {FC556C9A-4292-4469-9150-7EF90B81FE61}
	ProductCode  {6F7CB29D-1319-4816-B345-0856916EB801}
	UpgradeCode  {1AA03E10-2B19-11D2-B2EA-006097C99860}

 msival2.msi (ia64)
	PackageCode  {9F8F8E59-7A2B-4FD5-8057-7EEE069D9CA1}
	ProductCode  {546F90BF-A8F0-4FA4-853A-F6871CFEE41A}
	UpgradeCode  {105A6FFA-62E0-48B7-A02D-22E707DA24E3}

 orca.msi (ia64)
	PackageCode  {AE72B27A-C841-457D-A819-1125683BBA81}
	ProductCode  {E46A76C1-F46C-463E-983D-E4FC123383BF}
	UpgradeCode  {606D211B-0E7E-4E98-9BF6-1A6BB10F5050}

-----------------------------------------
     2.0 RC1 SDK GUIDs (decision made to make 1.5 a 2.0 version)
-----------------------------------------

 intelsdk.msi
	PackageCode    {8FC73004-88A0-4B41-82B8-8905D4AA904C}
	ProductCode    {8FC73004-88A0-4B41-82B8-8905D4AA904C}
	UpgradeCode    0

 msival2.msi (x86)
	PackageCode  {B399DEDE-D348-42D0-9F1A-2A91BF1ABA76}
	ProductCode  {E1EA0AF6-6522-459C-9C0F-A1362E1286F9}
	UpgradeCode  {AD2A58F2-E645-11D2-88C7-00A0C981B015}

 orca.msi (x86)
	PackageCode  {FC556C9B-4292-4469-9150-7EF90B81FE61}
	ProductCode  {6F7CB29E-1319-4816-B345-0856916EB801}
	UpgradeCode  {1AA03E10-2B19-11D2-B2EA-006097C99860}

 msival2.msi (ia64)
	PackageCode  {9F8F8E5A-7A2B-4FD5-8057-7EEE069D9CA1}
	ProductCode  {546F90C0-A8F0-4FA4-853A-F6871CFEE41A}
	UpgradeCode  {105A6FFA-62E0-48B7-A02D-22E707DA24E3}

 orca.msi (ia64)
	PackageCode  {AE72B27B-C841-457D-A819-1125683BBA81}
	ProductCode  {E46A76C2-F46C-463E-983D-E4FC123383BF}
	UpgradeCode  {606D211B-0E7E-4E98-9BF6-1A6BB10F5050}

-----------------------------------------
     2.0 RTM SDK GUIDs
-----------------------------------------

 intelsdk.msi
	PackageCode    {8FC73005-88A0-4B41-82B8-8905D4AA904C}
	ProductCode    {8FC73005-88A0-4B41-82B8-8905D4AA904C}
	UpgradeCode    0

 msival2.msi (x86)
	PackageCode  {B399DEDF-D348-42D0-9F1A-2A91BF1ABA76}
	ProductCode  {E1EA0AF7-6522-459C-9C0F-A1362E1286F9}
	UpgradeCode  {AD2A58F2-E645-11D2-88C7-00A0C981B015}

 orca.msi (x86)
	PackageCode  {FC556C9C-4292-4469-9150-7EF90B81FE61}
	ProductCode  {6F7CB29F-1319-4816-B345-0856916EB801}
	UpgradeCode  {1AA03E10-2B19-11D2-B2EA-006097C99860}

 msival2.msi (ia64)
	PackageCode  {9F8F8E5B-7A2B-4FD5-8057-7EEE069D9CA1}
	ProductCode  {546F90C1-A8F0-4FA4-853A-F6871CFEE41A}
	UpgradeCode  {105A6FFA-62E0-48B7-A02D-22E707DA24E3}

 orca.msi (ia64)
	PackageCode  {AE72B27C-C841-457D-A819-1125683BBA81}
	ProductCode  {E46A76C3-F46C-463E-983D-E4FC123383BF}
	UpgradeCode  {606D211B-0E7E-4E98-9BF6-1A6BB10F5050}